simulation/qsim/8bitCPU.msim.vcd
$comment
	File created using the following command:
		vcd file 8bitCPU.msim.vcd -direction
$end
$date
	Wed Nov 27 21:37:35 2024
$end
$version
	ModelSim Version 10.1d
$end
$timescale
	1ps
$end
$scope module test3_vlg_vec_tst $end
$var reg 1 ! clock $end
$var reg 1 " data_in $end
$var reg 1 # enable $end
$var reg 1 $ reset_alu $end
$var reg 1 % reset_fsm $end
$var wire 1 & answer $end
$var wire 1 ' id [3] $end
$var wire 1 ( id [2] $end
$var wire 1 ) id [1] $end
$var wire 1 * id [0] $end
$var wire 1 + sampler $end
$scope module i1 $end
$var wire 1 , gnd $end
$var wire 1 - vcc $end
$var wire 1 . unknown $end
$var tri1 1 / devclrn $end
$var tri1 1 0 devpor $end
$var tri1 1 1 devoe $end
$var wire 1 2 enable~combout $end
$var wire 1 3 clock~combout $end
$var wire 1 4 clock~clkctrl_outclk $end
$var wire 1 5 inst2|yfsm.s2~feeder_combout $end
$var wire 1 6 reset_fsm~combout $end
$var wire 1 7 reset_fsm~clkctrl_outclk $end
$var wire 1 8 data_in~combout $end
$var wire 1 9 inst2|yfsm.s2~regout $end
$var wire 1 : inst2|yfsm.s3~regout $end
$var wire 1 ; inst2|yfsm.s4~regout $end
$var wire 1 < inst2|yfsm.s5~feeder_combout $end
$var wire 1 = inst2|yfsm.s5~regout $end
$var wire 1 > inst2|yfsm.s6~feeder_combout $end
$var wire 1 ? inst2|yfsm.s6~regout $end
$var wire 1 @ inst2|yfsm.s7~regout $end
$var wire 1 A inst2|yfsm.s0~0_combout $end
$var wire 1 B inst2|yfsm.s0~regout $end
$var wire 1 C inst2|yfsm.s1~0_combout $end
$var wire 1 D inst2|yfsm.s1~regout $end
$var wire 1 E inst|Mux0~0_combout $end
$var wire 1 F inst|Mux0~1_combout $end
$var wire 1 G inst|Mux0~2_combout $end
$var wire 1 H reset_alu~combout $end
$var wire 1 I inst|yes_or_no~regout $end
$var wire 1 J inst2|WideOr11~combout $end
$var wire 1 K inst2|student_id [3] $end
$var wire 1 L inst2|student_id [2] $end
$var wire 1 M inst2|student_id [1] $end
$var wire 1 N inst2|student_id [0] $end
$upscope $end
$upscope $end
$enddefinitions $end
#0
$dumpvars
0!
0"
0#
0$
0%
0&
0*
0)
0(
0'
x+
0,
1-
x.
1/
10
11
02
03
04
05
06
07
08
09
0:
0;
0<
0=
0>
0?
0@
1A
0B
1C
0D
0E
0F
0G
0H
0I
0J
0N
zM
0L
zK
$end
#10000
1!
1#
13
12
14
0+
#20000
0!
03
04
1+
#30000
1"
1!
18
13
14
0+
1D
1B
1N
1G
15
0C
1*
#40000
0!
03
04
1+
#50000
1!
13
14
0+
1I
0D
19
0N
0G
05
1J
1&
0*
1)
#60000
0!
03
04
1+
#70000
1!
13
14
0+
0I
1:
09
1E
0&
1F
#80000
0!
03
04
1+
#90000
1!
13
14
0+
1;
0:
1L
0F
1<
0E
1(
#100000
0!
03
04
1+
#110000
1!
13
14
0+
1=
0;
1E
1>
0J
0L
0<
1F
0)
0(
#120000
0!
03
04
1+
#130000
1!
13
14
0+
1?
0=
0>
#140000
0!
03
04
1+
#150000
1!
13
14
0+
1@
0?
1N
1L
0A
0E
0F
1*
1(
1G
#160000
0!
03
04
1+
#170000
1!
13
14
0+
1I
0B
0@
1C
0N
0L
0G
1A
1&
0*
0(
#180000
0!
03
04
1+
#190000
1!
13
14
0+
0I
1D
1B
1N
1G
15
0C
0&
1*
